SDTM Terminology — sdtm_terminology • sdtm.terminology
…
The original variable Codelist Extensible (Yes/No) whose type is text,
is here renamed to is_extensible and made a logical vector with values
recoded from "No" and "Yes" to FALSE and TRUE, respectively.

    See also

sdtm_code_lists for terms referring to code lists only.

sdtm_code_terms for other terms (excluding code lists).

    Examples

sdtm_terminology
#> # A tibble: 40,816 × 8
#>    code    term        cl_code is_extensible cl_name synonym definition nci_term
#>    <chr>   <chr>       <chr>   <lgl>         <chr>   <chr>   <chr>      <chr>   
#>  1 C141657 TENMW1TC    NA      FALSE         10-Met… 10-Met… 10-Meter … CDISC F…
#>  2 C174106 TENMW101    C141657 NA            10-Met… TENMW1… 10-Meter … 10-Mete…
#>  3 C141700 TENMW102    C141657 NA            10-Met… TENMW1… 10-Meter … 10-Mete…
#>  4 C147592 TENMW103    C141657 NA            10-Met… TENMW1… 10-Meter … 10-Mete…
#>  5 C141701 TENMW104    C141657 NA            10-Met… TENMW1… 10-Meter … 10-Mete…
#>  6 C141656 TENMW1TN    NA      FALSE         10-Met… 10-Met… 10-Meter … CDISC F…
#>  7 C141701 TENMW1-Tes… C141656 NA            10-Met… TENMW1… 10-Meter … 10-Mete…
#>  8 C141700 TENMW1-Tim… C141656 NA            10-Met… TENMW1… 10-Meter … 10-Mete…
#>  9 C174106 TENMW1-Was… C141656 NA            10-Met… TENMW1… 10-Meter … 10-Mete…
#> 10 C147592 TENMW1-Wea… C141656 NA            10-Met… TENMW1… 10-Meter … 10-Mete…
#> # ℹ 40,806 more rows
…
