SDTM code lists — sdtm_code_lists • sdtm.terminology
…
    Source

    https://evs.nci.nih.gov/ftp1/CDISC/SDTM/

    See also

sdtm_terminology for all terms included in CDISC SDTM Terminology.

sdtm_code_terms for other terms (excluding code lists).

    Examples

sdtm_code_lists
#> # A tibble: 1,081 × 7
#>    code    term          is_extensible cl_name       synonym definition nci_term
#>    <chr>   <chr>         <lgl>         <chr>         <chr>   <chr>      <chr>   
#>  1 C141657 TENMW1TC      FALSE         10-Meter Wal… 10-Met… 10-Meter … CDISC F…
#>  2 C141656 TENMW1TN      FALSE         10-Meter Wal… 10-Met… 10-Meter … CDISC F…
#>  3 C141663 A4STR1TC      FALSE         4-Stair Asce… 4-Stai… 4-Stair A… CDISC F…
#>  4 C141662 A4STR1TN      FALSE         4-Stair Asce… 4-Stai… 4-Stair A… CDISC F…
#>  5 C141661 D4STR1TC      FALSE         4-Stair Desc… 4-Stai… 4-Stair D… CDISC F…
#>  6 C141660 D4STR1TN      FALSE         4-Stair Desc… 4-Stai… 4-Stair D… CDISC F…
#>  7 C115388 SIXMW1TC      FALSE         6 Minute Wal… 6 Minu… 6 Minute … CDISC F…
#>  8 C115387 SIXMW1TN      FALSE         6 Minute Wal… 6 Minu… 6 Minute … CDISC F…
#>  9 C182464 AIMS0101T07OR FALSE         Abnormal Inv… Abnorm… Abnormal … CDISC C…
#> 10 C182465 AIMS0108T09OR FALSE         Abnormal Inv… Abnorm… Abnormal … CDISC C…
#> # ℹ 1,071 more rows
…
